…
``` r
#Conducting Spearman's test to assess correlation 

election_2008 %>% mutate_if(is.character, as.factor)
```

    ## # A tibble: 3,111 × 6
    ##    dem_pct wht_pop_pct afam_pop_pct asn_pop_pct hisp_pop_pct other_pop_pct
    ##      <dbl>       <dbl>        <dbl>       <dbl>        <dbl>         <dbl>
    ##  1    52.3        94.3        0.155       0.455        0.946         4.14 
    ##  2    12.3        67.8        0.466       1.68        27.4           2.64 
    ##  3    25.9        90.7        5.87        0.149        1.83          1.49 
    ##  4    52.2        10.6        2.54        0.219       85.1           1.56 
    ##  5    24.3        97.1        0           0            0.911         1.95 
    ##  6    31.3        92.1        2.93        0.427        1.83          2.73 
    ##  7    56.7        63.3       20.3         5.11         9.09          2.13 
    ##  8    54.1        58.0       33.7         1.44         5.09          1.76 
    ##  9    21.7        81.0        0.860       0.456       15.8           1.92 
    ## 10    21.0        95.6        0.717       0.619        2.55          0.562
    ## # … with 3,101 more rows

``` r
election_2016 %>% mutate_if(is.character, as.factor)
```

    ## # A tibble: 3,110 × 6
    ##    dem_pct wht_pop_pct afam_pop_pct asn_pop_pct hisp_pop_pct other_pop_pct
    ##      <dbl>       <dbl>        <dbl>       <dbl>        <dbl>         <dbl>
    ##  1    34.8        93.1        0.293      0.423          1.27         4.96 
    ##  2    10.2        64.9        0.519      0.259         30.3          4.01 
    ##  3    15.3        89.1        6.13       0.479          2.40         1.88 
    ##  4    52.1        20.6        2.06       1.51          75.1          0.767
    ##  5    15.8        93.8        0          0              3.14         3.10 
    ##  6    17.3        90.3        5.46       0.0905         2.78         1.37 
    ##  7    58.4        60.3       19.8        6.67          10.1          3.13 
    ##  8    52.3        54.7       34.5        1.72           6.15         2.92 
    ##  9    13.8        77.1        1.17       0.435         19.0          2.21 
    ## 10    13.4        93.8        0.766      0.512          3.70         1.27 
    ## # … with 3,100 more rows
…
